{
  "version": 1,
  "notes": "",
  "documentation": "\"This file is a QMK Configurator export. You can import this at <https://config.qmk.fm>. It can also be used directly with QMK's source code.\n\nTo setup your QMK environment check out the tutorial: <https://docs.qmk.fm/#/newbs>\n\nYou can convert this file to a keymap.c using this command: `qmk json2c {keymap}`\n\nYou can compile this keymap using this command: `qmk compile {keymap}`\"\n",
  "keyboard": "planck/rev6_drop",
  "keymap": "altgr_keymap",
  "layout": "LAYOUT_ortho_4x12",
  "layers": [
    [
      "KC_TAB",
      "KC_Q",
      "KC_W",
      "KC_E",
      "KC_R",
      "KC_T",
      "KC_Y",
      "KC_U",
      "KC_I",
      "KC_O",
      "KC_P",
      "KC_BSPC",
      "KC_ESC",
      "KC_A",
      "KC_S",
      "KC_D",
      "KC_F",
      "KC_G",
      "KC_H",
      "KC_J",
      "KC_K",
      "KC_L",
      "KC_SCLN",
      "KC_QUOT",
      "KC_LSFT",
      "KC_Z",
      "KC_X",
      "KC_C",
      "KC_V",
      "KC_B",
      "KC_N",
      "KC_M",
      "KC_COMM",
      "KC_DOT",
      "KC_SLSH",
      "KC_ENT",
      "KC_LGUI",
      "KC_LCTL",
      "KC_LALT",
      "KC_RALT",
      "MO(3)",
      "KC_SPC",
      "KC_SPC",
      "MO(4)",
      "KC_LEFT",
      "KC_DOWN",
      "KC_UP",
      "KC_RGHT"
    ],
    [
      "KC_TAB",
      "KC_Q",
      "KC_W",
      "KC_F",
      "KC_P",
      "KC_G",
      "KC_J",
      "KC_L",
      "KC_U",
      "KC_Y",
      "KC_SCLN",
      "KC_BSPC",
      "KC_ESC",
      "KC_A",
      "KC_R",
      "KC_S",
      "KC_T",
      "KC_D",
      "KC_H",
      "KC_N",
      "KC_E",
      "KC_I",
      "KC_O",
      "KC_QUOT",
      "KC_LSFT",
      "KC_Z",
      "KC_X",
      "KC_C",
      "KC_V",
      "KC_B",
      "KC_K",
      "KC_M",
      "KC_COMM",
      "KC_DOT",
      "KC_SLSH",
      "KC_ENT",
      "KC_LGUI",
      "KC_LCTL",
      "KC_LALT",
      "KC_RALT",
      "MO(3)",
      "KC_SPC",
      "KC_SPC",
      "MO(4)",
      "KC_LEFT",
      "KC_DOWN",
      "KC_UP",
      "KC_RGHT"
    ],
    [
      "KC_TAB",
      "KC_QUOT",
      "KC_COMM",
      "KC_DOT",
      "KC_P",
      "KC_Y",
      "KC_F",
      "KC_G",
      "KC_C",
      "KC_R",
      "KC_L",
      "KC_BSPC",
      "KC_ESC",
      "KC_A",
      "KC_O",
      "KC_E",
      "KC_U",
      "KC_I",
      "KC_D",
      "KC_H",
      "KC_T",
      "KC_N",
      "KC_S",
      "KC_SLSH",
      "KC_LSFT",
      "KC_SCLN",
      "KC_Q",
      "KC_J",
      "KC_K",
      "KC_X",
      "KC_B",
      "KC_M",
      "KC_W",
      "KC_V",
      "KC_Z",
      "KC_ENT",
      "KC_LGUI",
      "KC_LCTL",
      "KC_LALT",
      "KC_RALT",
      "MO(3)",
      "KC_SPC",
      "KC_SPC",
      "MO(4)",
      "KC_LEFT",
      "KC_DOWN",
      "KC_UP",
      "KC_RGHT"
    ],
    [
      "KC_TILD",
      "KC_EXLM",
      "KC_AT",
      "KC_HASH",
      "KC_DLR",
      "KC_PERC",
      "KC_CIRC",
      "KC_AMPR",
      "KC_ASTR",
      "KC_LPRN",
      "KC_RPRN",
      "KC_BSPC",
      "KC_DEL",
      "KC_F1",
      "KC_F2",
      "KC_F3",
      "KC_F4",
      "KC_F5",
      "KC_F6",
      "KC_UNDS",
      "KC_PLUS",
      "KC_LCBR",
      "KC_RCBR",
      "KC_PIPE",
      "KC_TRNS",
      "KC_F7",
      "KC_F8",
      "KC_F9",
      "KC_F10",
      "KC_F11",
      "KC_F12",
      "LSFT(KC_NUHS)",
      "LSFT(KC_NUBS)",
      "KC_HOME",
      "KC_END",
      "KC_TRNS",
      "KC_TRNS",
      "KC_TRNS",
      "KC_TRNS",
      "KC_TRNS",
      "KC_TRNS",
      "KC_TRNS",
      "KC_TRNS",
      "MO(6)",
      "KC_MNXT",
      "KC_VOLD",
      "KC_VOLU",
      "KC_MPLY"
    ],
    [
      "KC_GRV",
      "KC_1",
      "KC_2",
      "KC_3",
      "KC_4",
      "KC_5",
      "KC_6",
      "KC_7",
      "KC_8",
      "KC_9",
      "KC_0",
      "KC_BSPC",
      "KC_DEL",
      "KC_F1",
      "KC_F2",
      "KC_F3",
      "KC_F4",
      "KC_F5",
      "KC_F6",
      "KC_MINS",
      "KC_EQL",
      "KC_LBRC",
      "KC_RBRC",
      "KC_BSLS",
      "KC_TRNS",
      "KC_F7",
      "KC_F8",
      "KC_F9",
      "KC_F10",
      "KC_F11",
      "KC_F12",
      "KC_NUHS",
      "KC_NUBS",
      "KC_PGUP",
      "KC_PGDN",
      "KC_TRNS",
      "KC_TRNS",
      "KC_TRNS",
      "KC_TRNS",
      "KC_TRNS",
      "MO(6)",
      "KC_TRNS",
      "KC_TRNS",
      "KC_TRNS",
      "KC_MNXT",
      "KC_VOLD",
      "KC_VOLU",
      "KC_MPLY"
    ],
    [
      "KC_1",
      "KC_1",
      "KC_1",
      "KC_1",
      "KC_1",
      "KC_1",
      "KC_1",
      "KC_1",
      "KC_1",
      "KC_1",
      "KC_1",
      "KC_1",
      "KC_NO",
      "KC_Q",
      "KC_W",
      "KC_E",
      "KC_R",
      "KC_T",
      "KC_Y",
      "KC_U",
      "KC_I",
      "KC_O",
      "KC_P",
      "KC_LBRC",
      "KC_NO",
      "KC_A",
      "KC_S",
      "KC_D",
      "KC_F",
      "KC_G",
      "KC_H",
      "KC_J",
      "KC_K",
      "KC_L",
      "KC_SCLN",
      "KC_QUOT",
      "TO(0)",
      "KC_NO",
      "KC_NO",
      "KC_C",
      "KC_V",
      "KC_NO",
      "KC_NO",
      "KC_N",
      "KC_M",
      "KC_NO",
      "KC_NO",
      "KC_NO"
    ],
    [
      "KC_TRNS",
      "QK_BOOT",
      "DB_TOGG",
      "RGB_TOG",
      "RGB_MOD",
      "RGB_HUI",
      "RGB_HUD",
      "RGB_SAI",
      "RGB_SAD",
      "RGB_VAI",
      "RGB_VAD",
      "KC_DEL",
      "KC_TRNS",
      "KC_TRNS",
      "ANY(MU_MOD)",
      "ANY(AU_ON)",
      "ANY(AU_OFF)",
      "AG_NORM",
      "AG_SWAP",
      "DF(0)",
      "DF(1)",
      "DF(2)",
      "TO(5)",
      "KC_TRNS",
      "KC_TRNS",
      "ANY(MUV_DE)",
      "ANY(MUV_IN)",
      "ANY(MU_ON)",
      "ANY(MU_OFF)",
      "KC_TRNS",
      "KC_TRNS",
      "KC_TRNS",
      "KC_TRNS",
      "KC_TRNS",
      "KC_TRNS",
      "KC_TRNS",
      "KC_TRNS",
      "KC_TRNS",
      "KC_TRNS",
      "BL_STEP",
      "KC_TRNS",
      "KC_TRNS",
      "KC_TRNS",
      "KC_TRNS",
      "KC_TRNS",
      "KC_TRNS",
      "KC_TRNS",
      "KC_TRNS"
    ]
  ],
  "author": ""
}